{
    "links": [
        {
            "rel": "next",
            "href": "http://localhost/subscriptionTagGroups?page=1&size=2"
        },
        {
            "rel": "self",
            "href": "http://localhost/subscriptionTagGroups?size=2"
        }
    ],
    "content": [
        {
            "links": "${json-unit.ignore}",
            "tag": "tag3",
            "unseen": 0
        },
        {
            "links": "${json-unit.ignore}",
            "tag": "user1_subscription4",
            "unseen": 0
        }
    ],
    "page": {
        "size": 2,
        "totalElements": 4,
        "totalPages": 2,
        "number": 0
    }
}